Examining Spotify Top 200 Charts and the Impacts On Other Countries
…
library(randomForest)

test_random_forest_df <- us %>%
  group_by(Columbia) %>%
  sample_frac(.2) %>%
  ungroup()

train_random_forest_df <- us %>%
  anti_join(test_random_forest_df, by="Track")

Our training data can be seen here:

train_random_forest_df

## # A tibble: 287 x 5
##    Track               Artist                    Columbia z_ranking z_time
##    <chr>               <chr>                     <fct>        <dbl>  <dbl>
##  1 rockstar            "                        TRUE         -1.41   2.30
##  2 Gucci Gang          "                        TRUE         -1.39   2.30
##  3 Havana              "                        TRUE         -1.39   2.30
##  4 I Fall Apart        "                        FALSE        -1.39   2.30
##  5 No Limit            "                        TRUE         -1.39   2.30
##  6 Let You Down        "                        TRUE         -1.28   2.30
##  7 LOVE. FEAT. ZACARI. "                        FALSE        -1.28   2.30
##  8 XO TOUR Llif3       "                        TRUE         -1.28   2.30
##  9 Young Dumb & Broke  "                        FALSE        -1.28   2.30
## 10 Wolves              "                        TRUE         -1.26   2.30
## # ... with 277 more rows

And our testing data can be seen here:

test_random_forest_df

## # A tibble: 72 x 5
##    Track              Artist                    Columbia z_ranking  z_time
##    <chr>              <chr>                     <fct>        <dbl>   <dbl>
##  1 Hurt You           "                        TRUE       -1.33   -0.0965
##  2 chame La Culpa    "                        TRUE       -0.575   1.21
##  3 Lonely Together ( "                        TRUE       -0.742   2.10
##  4 Mine               "                        TRUE       -1.38    1.41
##  5 Mad Love           "                        TRUE       -0.0896  0.260
##  6 How Long (feat. F "                        TRUE       -0.508  -0.751
##  7 Consequences       "                        TRUE        0.362  -0.652
##  8 Flames             "                        TRUE        0.697   0.0820
##  9 That's What I Like "                        TRUE       -0.140   2.30
## 10 Starboy            "                        TRUE        0.329   1.99
## # ... with 62 more rows
…
